Categories:System
License:GPL-3.0-only
Web Site:
Source Code:https://gitlab.com/juanitobananas/wave-up/tree/HEAD
Issue Tracker:https://gitlab.com/juanitobananas/wave-up/issues
Translation:https://www.transifex.com/juanitobananas/waveup/
Bitcoin:16DXeCxxKGvepYLehyHSr3M1nv1s1eUotZ

Auto Name:WaveUp

Repo Type:git
Repo:https://gitlab.com/juanitobananas/wave-up.git

Build:0.91,1
    commit=875a239bf71de7cbba9369d57a53bbf1b286e567
    subdir=app
    gradle=yes

Build:0.92,2
    commit=v0.92
    subdir=app
    gradle=yes

Build:0.93,3
    commit=v0.93
    subdir=app
    gradle=yes

Build:0.94,4
    commit=v0.94
    subdir=app
    gradle=yes

Build:0.95,5
    commit=v0.95
    subdir=app
    gradle=yes

Build:0.96,6
    disable=old failing build
    commit=v0.96
    subdir=app
    gradle=yes

Build:0.96-1,7
    commit=v0.96-1
    subdir=app
    gradle=yes

Build:0.96-2,8
    commit=v0.96-2
    subdir=app
    gradle=yes

Build:0.97,9
    commit=v0.97
    subdir=app
    gradle=yes

Build:0.98,10
    commit=v0.98
    subdir=app
    gradle=yes

Build:0.98-1,11
    commit=v0.98-1
    subdir=app
    gradle=yes

Build:0.99,12
    commit=v0.99
    subdir=app
    gradle=yes

Build:0.99-1,13
    commit=v0.99-1
    subdir=app
    gradle=yes

Build:0.99-2,14
    commit=v0.99-2
    subdir=app
    gradle=yes

Build:1.0,16
    commit=v1.0
    subdir=app
    gradle=yes

Build:1.1,17
    commit=v1.1
    subdir=app
    gradle=yes

Build:1.2,18
    disable=translations
    commit=v1.2
    subdir=app
    gradle=yes

Build:1.2-1,19
    commit=v1.2-1
    subdir=app
    gradle=yes

Build:1.2-2,20
    commit=v1.2-2
    subdir=app
    gradle=yes

Build:1.2-3,21
    commit=v1.2-3
    subdir=app
    gradle=yes

Build:1.3,22
    commit=v1.3
    subdir=app
    gradle=yes

Build:1.3-1,23
    commit=v1.3-1
    subdir=app
    gradle=yes

Build:1.3-2,24
    commit=v1.3-2
    subdir=app
    gradle=yes

Build:1.3-3,25
    commit=v1.3-3
    subdir=app
    gradle=yes

Build:1.3-4,26
    commit=v1.3-4
    subdir=app
    gradle=yes

Build:1.3-5,27
    commit=v1.3-5
    subdir=app
    gradle=yes

Build:1.3-8,29
    commit=v1.3-8
    subdir=app
    gradle=yes

Build:1.4,30
    commit=v1.4
    subdir=app
    gradle=yes

Build:1.4-2,32
    commit=v1.4-2
    subdir=app
    gradle=yes

Build:1.5,33
    commit=v1.5
    subdir=app
    gradle=yes

Build:1.5-2,35
    commit=v1.5-2
    subdir=app
    gradle=yes

Build:1.5-3,36
    commit=v1.5-3
    subdir=app
    gradle=yes

Build:1.5-4,37
    commit=v1.5-4
    subdir=app
    gradle=yes

Build:1.5-5,38
    commit=v1.5-5
    subdir=app
    gradle=yes

Build:1.5-5a,39
    commit=v1.5-5a
    subdir=app
    gradle=yes

Build:1.6.0,40
    commit=v1.6.0
    subdir=app
    gradle=yes

Build:1.6.1,41
    commit=v1.6.1
    subdir=app
    submodules=yes
    gradle=yes

Build:1.6.1a,42
    commit=v1.6.1a
    subdir=app
    submodules=yes
    gradle=yes

Build:1.6.2,43
    commit=v1.6.2
    subdir=app
    submodules=yes
    gradle=yes

Build:1.7.0,44
    commit=v1.7.0
    subdir=app
    submodules=yes
    gradle=yes

Build:1.7.1,45
    commit=v1.7.1
    subdir=app
    submodules=yes
    gradle=yes

Build:2.0.0,46
    commit=v2.0.0
    subdir=app
    submodules=yes
    gradle=yes

Build:2.0.1,47
    commit=v2.0.1
    subdir=app
    submodules=yes
    gradle=yes

Build:2.1.0,48
    commit=v2.1.0
    subdir=app
    submodules=yes
    gradle=yes

Build:2.1.0a,49
    commit=v2.1.0a
    subdir=app
    submodules=yes
    gradle=yes

Build:2.1.0b,50
    commit=v2.1.0b
    subdir=app
    submodules=yes
    gradle=yes

Build:2.1.0c,51
    commit=v2.1.0c
    subdir=app
    submodules=yes
    gradle=yes

Build:2.2.0,52
    commit=v2.2.0
    subdir=app
    submodules=yes
    gradle=yes

Build:2.3.0,53
    commit=v2.3.0
    subdir=app
    submodules=yes
    gradle=yes

Build:2.3.0a,54
    commit=v2.3.0a
    subdir=app
    submodules=yes
    gradle=yes

Build:2.3.0b,55
    commit=v2.3.0b
    subdir=app
    submodules=yes
    gradle=yes

Build:2.3.1,56
    commit=v2.3.1
    subdir=app
    submodules=yes
    gradle=yes

Build:2.4.0,57
    commit=v2.4.0
    subdir=app
    submodules=yes
    gradle=yes

Build:2.4.1,58
    commit=v2.4.1
    subdir=app
    submodules=yes
    gradle=yes

Build:2.4.2,59
    commit=v2.4.2
    subdir=app
    submodules=yes
    gradle=yes

Build:2.4.3,60
    commit=v2.4.3
    subdir=app
    submodules=yes
    gradle=yes

Build:2.4.4,61
    commit=v2.4.4
    subdir=app
    submodules=yes
    gradle=yes

Build:2.5,62
    commit=v2.5
    subdir=app
    submodules=yes
    gradle=standard

Build:2.5.3,65
    commit=v2.5.3
    subdir=app
    submodules=yes
    gradle=standard

Build:2.5.4,66
    commit=v2.5.4
    subdir=app
    submodules=yes
    gradle=standard

Build:2.5.5,67
    commit=v2.5.5
    subdir=app
    submodules=yes
    gradle=standard

Build:2.6.1,69
    commit=v2.6.1
    subdir=app
    submodules=yes
    gradle=standard

Build:2.6.2,70
    commit=v2.6.2
    subdir=app
    submodules=yes
    gradle=standard

Build:2.6.3,71
    commit=v2.6.3
    subdir=app
    submodules=yes
    gradle=standard

Build:2.6.4,72
    commit=v2.6.4
    subdir=app
    submodules=yes
    gradle=standard

Build:2.6.6,74
    commit=v2.6.6
    subdir=app
    submodules=yes
    gradle=standard

Build:2.6.6a,75
    commit=v2.6.6a
    subdir=app
    submodules=yes
    gradle=standard

Build:2.6.6b,76
    commit=v2.6.6b
    subdir=app
    submodules=yes
    gradle=standard

Build:2.6.7,77
    commit=v2.6.7
    subdir=app
    submodules=yes
    gradle=standard

Build:3.0.1-beta,80
    commit=v3.0.1-beta
    subdir=app
    submodules=yes
    gradle=standard

Build:3.0.2,81
    commit=v3.0.2
    subdir=app
    submodules=yes
    gradle=standard

Build:3.0.3,82
    commit=v3.0.3
    subdir=app
    submodules=yes
    gradle=standard

Build:3.0.4,83
    commit=v3.0.4
    subdir=app
    submodules=yes
    gradle=standard

Auto Update Mode:Version v%v
Update Check Mode:Tags
Current Version:3.0.4
Current Version Code:83
